23:34:10.113: CPU Name: Intel(R) Core(TM) i7-7820HK CPU @ 2.90GHz
23:34:10.113: CPU Speed: 2904MHz
23:34:10.113: Physical Cores: 4, Logical Cores: 8
23:34:10.113: Physical Memory: 16333MB Total, 7868MB Free
23:34:10.113: Windows Version: 10.0 Build 17134 (revision: 285; 64-bit)
23:34:10.113: Running as administrator: false
23:34:10.113: Aero is Enabled (Aero is always on for windows 8 and above)
23:34:10.113: Windows 10 Gaming Features:
23:34:10.113: 	Game Bar: Off
23:34:10.113: 	Game DVR: Off
23:34:10.113: 	Game DVR Background Recording: Off
23:34:10.113: 	Game Mode: On
23:34:10.119: Sec. Software Status:
23:34:10.121: 	Antivirus Windows Defender: enabled (AV)
23:34:10.121: 	Pare-feu Windows: disabled (FW)
23:34:10.121: 	Antivirus Windows Defender: enabled (ASW)
23:34:10.121: Portable mode: false
23:34:10.140: OBS 21.0.1 (64bit, windows)
23:34:10.140: ---------------------------------
23:34:10.141: ---------------------------------
23:34:10.141: audio settings reset:
23:34:10.141: 	samples per sec: 44100
23:34:10.141: 	speakers:        2
23:34:10.143: ---------------------------------
23:34:10.143: Initializing D3D11...
23:34:10.143: Available Video Adapters: 
23:34:10.144: 	Adapter 1: NVIDIA GeForce GTX 1070
23:34:10.144: 	  Dedicated VRAM: 4178575360
23:34:10.144: 	  Shared VRAM:    4268564480
23:34:10.144: 	  output 1: pos={0, 0}, size={1920, 1080}, attached=true
23:34:10.144: 	  output 2: pos={1920, -2159}, size={3840, 2160}, attached=true
23:34:10.147: Loading up D3D11 on adapter NVIDIA GeForce GTX 1070 (0)
23:34:10.193: D3D11 loaded successfully, feature level used: 45056
23:34:10.896: ---------------------------------
23:34:10.896: video settings reset:
23:34:10.896: 	base resolution:   1600x900
23:34:10.896: 	output resolution: 1600x900
23:34:10.896: 	downscale filter:  Bicubic
23:34:10.896: 	fps:               30/1
23:34:10.896: 	format:            NV12
23:34:10.900: Audio monitoring device:
23:34:10.900: 	name: Par défaut
23:34:10.900: 	id: default
23:34:10.901: ---------------------------------
23:34:10.909: Required module function 'obs_module_load' in module '../../obs-plugins/64bit/chrome_elf.dll' not found, loading of module failed
23:34:10.918: [CoreAudio encoder]: CoreAudio AAC encoder not installed on the system or couldn't be loaded
23:34:10.966: [AMF] <obs_module_load> AMF not supported (no AMD graphics)
23:34:10.966: Failed to initialize module 'enc-amf.dll'
23:34:11.040: Required module function 'obs_module_load' in module '../../obs-plugins/64bit/libcef.dll' not found, loading of module failed
23:34:11.042: Required module function 'obs_module_load' in module '../../obs-plugins/64bit/libEGL.dll' not found, loading of module failed
23:34:11.045: Required module function 'obs_module_load' in module '../../obs-plugins/64bit/libGLESv2.dll' not found, loading of module failed
23:34:11.048: Failed to load 'en-US' text for module: 'obs-browser.dll'
23:34:11.048: [browser_source: 'Version: 1.29.0']
23:34:11.073: NVENC supported
23:34:11.288: VLC found, VLC video source enabled
23:34:11.316: No blackmagic support
23:34:11.465: ---------------------------------
23:34:11.465:   Loaded Modules:
23:34:11.465:     win-wasapi.dll
23:34:11.465:     win-mf.dll
23:34:11.465:     win-dshow.dll
23:34:11.465:     win-decklink.dll
23:34:11.465:     win-capture.dll
23:34:11.465:     vlc-video.dll
23:34:11.465:     text-freetype2.dll
23:34:11.465:     rtmp-services.dll
23:34:11.465:     obs-x264.dll
23:34:11.465:     obs-vst.dll
23:34:11.465:     obs-transitions.dll
23:34:11.465:     obs-text.dll
23:34:11.465:     obs-qsv11.dll
23:34:11.465:     obs-outputs.dll
23:34:11.465:     obs-filters.dll
23:34:11.465:     obs-ffmpeg.dll
23:34:11.465:     obs-browser.dll
23:34:11.465:     image-source.dll
23:34:11.465:     frontend-tools.dll
23:34:11.465:     enc-amf.dll
23:34:11.465:     coreaudio-encoder.dll
23:34:11.465: ---------------------------------
23:34:11.466: ==== Startup complete ===============================================
23:34:11.489: All scene data cleared
23:34:11.489: ------------------------------------------------
23:34:11.509: [WASAPISource::TryInitialize]:[Speakers (Realtek High Definition Audio)] Failed to activate client context: 88890004
23:34:11.509: [WASAPISource::WASAPISource] Device '{0.0.0.00000000}.{428cd3fe-e3e0-4de6-9bc3-5e2c2e005004}' not found.  Waiting for device
23:34:14.236: [WASAPISource::TryInitialize]:[Microphone (H1)] Failed to activate client context: 88890004
23:34:14.236: [WASAPISource::WASAPISource] Device '{0.0.1.00000000}.{614a01bf-5a5d-4c85-8072-206af9ddf73f}' not found.  Waiting for device
23:34:14.239: [WASAPISource::TryInitialize]:[Microphone (Realtek High Definition Audio)] Failed to activate client context: 88890004
23:34:14.239: [WASAPISource::WASAPISource] Device '{0.0.1.00000000}.{fcc652d9-1fa6-4184-bc12-28261cd052aa}' not found.  Waiting for device
23:34:14.311: warning: deprecated pixel format used, make sure you did set range correctly
23:34:14.321: Switched to scene 'Window Mixed Reality View'
23:34:14.325: ------------------------------------------------
23:34:14.325: Loaded scenes:
23:34:14.325: - scene 'Window Mixed Reality View':
23:34:14.325:     - source: 'Game Capture 2' (game_capture)
23:34:14.325:     - source: '1' (monitor_capture)
23:34:14.325: - scene 'WMR TO Steam':
23:34:14.325:     - source: 'Game Capture' (game_capture)
23:34:14.325:     - source: 'H1' (wasapi_input_capture)
23:34:14.325:         - filter: 'Noise Suppression' (noise_suppress_filter)
23:34:14.325:     - source: 'RCE' (game_capture)
23:34:14.325:     - source: 'Display Capture' (monitor_capture)
23:34:14.325:     - source: 'Webcam' (dshow_input)
23:34:14.325: - scene 'Scene 2':
23:34:14.325:     - source: 'Audio Input Capture' (wasapi_input_capture)
23:34:14.325:         - monitoring: monitor and output
23:34:14.325: - scene 'MultiScreen':
23:34:14.325:     - source: '1' (monitor_capture)
23:34:14.325:     - source: '2' (monitor_capture)
23:34:14.325:     - source: '3' (monitor_capture)
23:34:14.325:     - source: 'Webcam' (dshow_input)
23:34:14.325:     - source: 'H1' (wasapi_input_capture)
23:34:14.325:         - filter: 'Noise Suppression' (noise_suppress_filter)
23:34:14.325:     - source: 'BrowserSource' (browser_source)
23:34:14.325:     - source: 'Image' (image_source)
23:34:14.325:     - source: 'Audio Input Capture' (wasapi_input_capture)
23:34:14.325:         - monitoring: monitor and output
23:34:14.325: - scene 'MultiScreen 2':
23:34:14.325:     - source: 'Webcam' (dshow_input)
23:34:14.325:     - source: 'H1' (wasapi_input_capture)
23:34:14.325:         - filter: 'Noise Suppression' (noise_suppress_filter)
23:34:14.325:     - source: 'Image' (image_source)
23:34:14.325:     - source: '3' (monitor_capture)
23:34:14.325:     - source: '1' (monitor_capture)
23:34:14.325:     - source: 'Audio Input Capture' (wasapi_input_capture)
23:34:14.325:         - monitoring: monitor and output
23:34:14.325:     - source: '2' (monitor_capture)
23:34:14.325: ------------------------------------------------
23:34:14.374: Webcam: data.GetDevice failed
23:34:14.374: Webcam: Video configuration failed
23:34:31.939: User added source 'Webcam' (dshow_input) to scene 'Window Mixed Reality View'
23:34:40.122: ---------------------------------
23:34:40.122: [DShow Device: 'Webcam'] settings updated: 
23:34:40.122: 	video device: Logitech HD Webcam C525
23:34:40.122: 	video path: \\?\usb#vid_046d&pid_0826&mi_02#7&10c41f6a&0&0002#{65e8773d-8f56-11d0-a3b9-00a0c9223196}\{bbefb6c7-2fc4-4139-bb8b-a58bba724083}
23:34:40.122: 	resolution: 640x480
23:34:40.122: 	fps: 30.00 (interval: 333333)
23:34:40.122: 	format: I420
23:35:55.233: ---------------------------------
23:35:55.233: [x264 encoder: 'simple_h264_stream'] preset: veryfast
23:35:55.234: [x264 encoder: 'simple_h264_stream'] settings:
23:35:55.234: 	rate_control: CBR
23:35:55.234: 	bitrate:      2500
23:35:55.234: 	buffer size:  2500
23:35:55.234: 	crf:          0
23:35:55.234: 	fps_num:      30
23:35:55.234: 	fps_den:      1
23:35:55.234: 	width:        1600
23:35:55.234: 	height:       900
23:35:55.234: 	keyint:       60
23:35:55.234: 
23:35:55.245: [Media Foundation AAC: 'simple_aac']: encoder created
23:35:55.245: 	bitrate: 160
23:35:55.245: 	channels: 2
23:35:55.245: 	sample rate: 44100
23:35:55.245: 	bits-per-sample: 16
23:35:55.245: 
23:35:55.251: ==== Recording Start ===============================================
23:35:55.251: [ffmpeg muxer: 'simple_file_output'] Writing file 'C:/Users/JAMS.CENTER/Videos/2018-10-08 23-35-55.flv'...
23:37:17.951: [ffmpeg muxer: 'simple_file_output'] Output of file 'C:/Users/JAMS.CENTER/Videos/2018-10-08 23-35-55.flv' stopped
23:37:17.951: Output 'simple_file_output': stopping
23:37:17.951: Output 'simple_file_output': Total frames output: 2451
23:37:17.951: Output 'simple_file_output': Total drawn frames: 2481
23:37:17.951: ==== Recording Stop ================================================
23:38:20.368: ---------------------------------
23:38:20.368: [x264 encoder: 'simple_h264_stream'] preset: veryfast
23:38:20.368: [x264 encoder: 'simple_h264_stream'] settings:
23:38:20.368: 	rate_control: CBR
23:38:20.368: 	bitrate:      2500
23:38:20.368: 	buffer size:  2500
23:38:20.368: 	crf:          0
23:38:20.368: 	fps_num:      30
23:38:20.368: 	fps_den:      1
23:38:20.368: 	width:        1600
23:38:20.368: 	height:       900
23:38:20.368: 	keyint:       60
23:38:20.368: 
23:38:20.374: [Media Foundation AAC: 'simple_aac']: encoder created
23:38:20.374: 	bitrate: 160
23:38:20.374: 	channels: 2
23:38:20.374: 	sample rate: 44100
23:38:20.374: 	bits-per-sample: 16
23:38:20.374: 
23:38:20.380: ==== Recording Start ===============================================
23:38:20.380: [ffmpeg muxer: 'simple_file_output'] Writing file 'C:/Users/JAMS.CENTER/Videos/2018-10-08 23-38-20.flv'...
23:39:25.113: [ffmpeg muxer: 'simple_file_output'] Output of file 'C:/Users/JAMS.CENTER/Videos/2018-10-08 23-38-20.flv' stopped
23:39:25.113: Output 'simple_file_output': stopping
23:39:25.113: Output 'simple_file_output': Total frames output: 1912
23:39:25.113: Output 'simple_file_output': Total drawn frames: 1942
23:39:25.113: ==== Recording Stop ================================================
00:09:33.873: ==== Shutting down ==================================================
00:09:33.885: Switched to scene '(null)'
00:09:33.922: All scene data cleared
00:09:33.923: ------------------------------------------------
00:09:34.054: Freeing OBS context data
00:09:34.157: [Scripting] Total detached callbacks: 0
00:09:34.171: == Profiler Results =============================
00:09:34.171: run_program_init: 5184.62 ms
00:09:34.171:  ┣OBSApp::AppInit: 37.92 ms
00:09:34.171:  ┃ ┗OBSApp::InitLocale: 17.338 ms
00:09:34.171:  ┗OBSApp::OBSInit: 4360.76 ms
00:09:34.171:    ┣obs_startup: 9.362 ms
00:09:34.171:    ┗OBSBasic::OBSInit: 4297.08 ms
00:09:34.171:      ┣OBSBasic::InitBasicConfig: 0.489 ms
00:09:34.171:      ┣OBSBasic::ResetAudio: 0.169 ms
00:09:34.171:      ┣OBSBasic::ResetVideo: 758.791 ms
00:09:34.171:      ┣OBSBasic::InitOBSCallbacks: 0.005 ms
00:09:34.171:      ┣OBSBasic::InitHotkeys: 0.389 ms
00:09:34.171:      ┣obs_load_all_modules: 563.893 ms
00:09:34.171:      ┃ ┣obs_init_module(coreaudio-encoder.dll): 1.108 ms
00:09:34.171:      ┃ ┣obs_init_module(enc-amf.dll): 32.527 ms
00:09:34.171:      ┃ ┣obs_init_module(frontend-tools.dll): 6.998 ms
00:09:34.171:      ┃ ┣obs_init_module(image-source.dll): 0.006 ms
00:09:34.171:      ┃ ┣obs_init_module(obs-browser.dll): 0.528 ms
00:09:34.171:      ┃ ┣obs_init_module(obs-ffmpeg.dll): 8.422 ms
00:09:34.171:      ┃ ┃ ┗nvenc_check: 7.892 ms
00:09:34.171:      ┃ ┣obs_init_module(obs-filters.dll): 0.033 ms
00:09:34.171:      ┃ ┣obs_init_module(obs-outputs.dll): 0.016 ms
00:09:34.171:      ┃ ┣obs_init_module(obs-qsv11.dll): 60.187 ms
00:09:34.171:      ┃ ┣obs_init_module(obs-text.dll): 0.444 ms
00:09:34.171:      ┃ ┣obs_init_module(obs-transitions.dll): 0.014 ms
00:09:34.171:      ┃ ┣obs_init_module(obs-vst.dll): 0.002 ms
00:09:34.171:      ┃ ┣obs_init_module(obs-x264.dll): 0.002 ms
00:09:34.172:      ┃ ┣obs_init_module(rtmp-services.dll): 5.884 ms
00:09:34.172:      ┃ ┣obs_init_module(text-freetype2.dll): 0.263 ms
00:09:34.172:      ┃ ┣obs_init_module(vlc-video.dll): 36.774 ms
00:09:34.172:      ┃ ┣obs_init_module(win-capture.dll): 0.112 ms
00:09:34.172:      ┃ ┣obs_init_module(win-decklink.dll): 2.811 ms
00:09:34.172:      ┃ ┣obs_init_module(win-dshow.dll): 11.196 ms
00:09:34.172:      ┃ ┣obs_init_module(win-mf.dll): 98.069 ms
00:09:34.172:      ┃ ┣obs_init_module(win-wasapi.dll): 0.012 ms
00:09:34.172:      ┃ ┗reset_win32_symbol_paths: 0.097 ms
00:09:34.172:      ┣OBSBasic::ResetOutputs: 1.727 ms
00:09:34.172:      ┣OBSBasic::CreateHotkeys: 0.36 ms
00:09:34.172:      ┣OBSBasic::InitService: 11.456 ms
00:09:34.172:      ┣OBSBasic::InitPrimitives: 0.831 ms
00:09:34.172:      ┗OBSBasic::Load: 2846.1 ms
00:09:34.172: obs_hotkey_thread(25 ms): min=0.003 ms, median=0.007 ms, max=64.183 ms, 99th percentile=0.427 ms, 99.9976% below 25 ms
00:09:34.172: audio_thread(Audio): min=0 ms, median=0.024 ms, max=31.253 ms, 99th percentile=0.256 ms
00:09:34.172:  ┗receive_audio: min=0.001 ms, median=0.143 ms, max=9.434 ms, 99th percentile=0.446 ms, 0.0685288 calls per parent call
00:09:34.172:    ┣buffer_audio: min=0 ms, median=0.001 ms, max=0.174 ms, 99th percentile=0.002 ms
00:09:34.172:    ┗do_encode: min=0.056 ms, median=0.139 ms, max=9.429 ms, 99th percentile=0.431 ms
00:09:34.172:      ┗encode(simple_aac): min=0.055 ms, median=0.119 ms, max=1.313 ms, 99th percentile=0.316 ms
00:09:34.172: obs_graphics_thread(33.3333 ms): min=0.28 ms, median=0.957 ms, max=2783.38 ms, 99th percentile=3.842 ms, 99.9921% below 33.333 ms
00:09:34.172:  ┣tick_sources: min=0.001 ms, median=0.194 ms, max=2782.66 ms, 99th percentile=2.809 ms
00:09:34.172:  ┣output_frame: min=0.268 ms, median=0.573 ms, max=9.686 ms, 99th percentile=1.313 ms
00:09:34.172:  ┃ ┣gs_context(video->graphics): min=0.096 ms, median=0.246 ms, max=7.169 ms, 99th percentile=0.509 ms
00:09:34.172:  ┃ ┃ ┣render_video: min=0.042 ms, median=0.134 ms, max=6.723 ms, 99th percentile=0.352 ms
00:09:34.172:  ┃ ┃ ┃ ┣render_main_texture: min=0.004 ms, median=0.116 ms, max=5.045 ms, 99th percentile=0.313 ms
00:09:34.172:  ┃ ┃ ┃ ┣render_output_texture: min=0.003 ms, median=0.005 ms, max=0.811 ms, 99th percentile=0.013 ms
00:09:34.172:  ┃ ┃ ┃ ┣render_convert_texture: min=0.001 ms, median=0.008 ms, max=1.429 ms, 99th percentile=0.023 ms
00:09:34.172:  ┃ ┃ ┃ ┗stage_output_texture: min=0 ms, median=0.002 ms, max=0.168 ms, 99th percentile=0.005 ms
00:09:34.172:  ┃ ┃ ┣download_frame: min=0 ms, median=0.001 ms, max=0.139 ms, 99th percentile=0.004 ms
00:09:34.172:  ┃ ┃ ┗gs_flush: min=0.032 ms, median=0.108 ms, max=6.617 ms, 99th percentile=0.23 ms
00:09:34.172:  ┃ ┗output_video_data: min=0.204 ms, median=0.327 ms, max=6.905 ms, 99th percentile=0.875 ms
00:09:34.172:  ┗render_displays: min=0 ms, median=0.14 ms, max=24.811 ms, 99th percentile=0.959 ms
00:09:34.172: video_thread(video): min=0 ms, median=0.001 ms, max=12.356 ms, 99th percentile=2.582 ms
00:09:34.172:  ┗receive_video: min=0 ms, median=2.172 ms, max=12.353 ms, 99th percentile=3.353 ms, 0.0695375 calls per parent call
00:09:34.172:    ┗do_encode: min=1.099 ms, median=2.172 ms, max=12.353 ms, 99th percentile=3.351 ms
00:09:34.172:      ┗encode(simple_h264_stream): min=1.052 ms, median=2.109 ms, max=4.298 ms, 99th percentile=3.08 ms
00:09:34.172: =================================================
00:09:34.172: == Profiler Time Between Calls ==================
00:09:34.172: obs_hotkey_thread(25 ms): min=24.371 ms, median=25.922 ms, max=89.388 ms, 9.26341% within ±2% of 25 ms (0.00365372% lower, 90.7329% higher)
00:09:34.172: obs_graphics_thread(33.3333 ms): min=3.794 ms, median=33.333 ms, max=2783.38 ms, 99.4183% within ±2% of 33.333 ms (0.295556% lower, 0.286123% higher)
00:09:34.172: =================================================
00:09:34.277: Number of memory leaks: 1
