01:52:47.243: CPU Name: Intel(R) Core(TM) i7-7820HK CPU @ 2.90GHz
01:52:47.243: CPU Speed: 2904MHz
01:52:47.243: Physical Cores: 4, Logical Cores: 8
01:52:47.243: Physical Memory: 16333MB Total, 7920MB Free
01:52:47.243: Windows Version: 10.0 Build 17134 (revision: 285; 64-bit)
01:52:47.243: Running as administrator: false
01:52:47.243: Aero is Enabled (Aero is always on for windows 8 and above)
01:52:47.243: Windows 10 Gaming Features:
01:52:47.243: 	Game Bar: Off
01:52:47.243: 	Game DVR: Off
01:52:47.243: 	Game DVR Background Recording: Off
01:52:47.243: 	Game Mode: On
01:52:47.245: Sec. Software Status:
01:52:47.246: 	Windows Defender Antivirus: enabled (AV)
01:52:47.247: 	Windows Firewall: disabled (FW)
01:52:47.247: 	Windows Defender Antivirus: enabled (ASW)
01:52:47.247: Portable mode: false
01:52:47.269: OBS 21.0.1 (64bit, windows)
01:52:47.269: ---------------------------------
01:52:47.271: ---------------------------------
01:52:47.271: audio settings reset:
01:52:47.271: 	samples per sec: 44100
01:52:47.271: 	speakers:        2
01:52:47.274: ---------------------------------
01:52:47.274: Initializing D3D11...
01:52:47.274: Available Video Adapters: 
01:52:47.275: 	Adapter 1: NVIDIA GeForce GTX 1070
01:52:47.275: 	  Dedicated VRAM: 4178575360
01:52:47.275: 	  Shared VRAM:    4268564480
01:52:47.275: 	  output 1: pos={0, 0}, size={1280, 720}, attached=true
01:52:47.278: Loading up D3D11 on adapter NVIDIA GeForce GTX 1070 (0)
01:52:47.344: D3D11 loaded successfully, feature level used: 45056
01:52:48.237: ---------------------------------
01:52:48.238: video settings reset:
01:52:48.238: 	base resolution:   1600x900
01:52:48.238: 	output resolution: 1600x900
01:52:48.238: 	downscale filter:  Bicubic
01:52:48.238: 	fps:               30/1
01:52:48.238: 	format:            NV12
01:52:48.240: Audio monitoring device:
01:52:48.240: 	name: Default
01:52:48.240: 	id: default
01:52:48.241: ---------------------------------
01:52:48.250: Required module function 'obs_module_load' in module '../../obs-plugins/64bit/chrome_elf.dll' not found, loading of module failed
01:52:48.257: [CoreAudio encoder]: CoreAudio AAC encoder not installed on the system or couldn't be loaded
01:52:48.309: [AMF] <obs_module_load> AMF not supported (no AMD graphics)
01:52:48.309: Failed to initialize module 'enc-amf.dll'
01:52:48.375: Required module function 'obs_module_load' in module '../../obs-plugins/64bit/libcef.dll' not found, loading of module failed
01:52:48.377: Required module function 'obs_module_load' in module '../../obs-plugins/64bit/libEGL.dll' not found, loading of module failed
01:52:48.380: Required module function 'obs_module_load' in module '../../obs-plugins/64bit/libGLESv2.dll' not found, loading of module failed
01:52:48.385: Failed to load 'en-US' text for module: 'obs-browser.dll'
01:52:48.385: [browser_source: 'Version: 1.29.0']
01:52:48.411: NVENC supported
01:52:48.617: VLC found, VLC video source enabled
01:52:48.663: No blackmagic support
01:52:48.839: ---------------------------------
01:52:48.839:   Loaded Modules:
01:52:48.839:     win-wasapi.dll
01:52:48.839:     win-mf.dll
01:52:48.839:     win-dshow.dll
01:52:48.839:     win-decklink.dll
01:52:48.839:     win-capture.dll
01:52:48.839:     vlc-video.dll
01:52:48.839:     text-freetype2.dll
01:52:48.839:     rtmp-services.dll
01:52:48.839:     obs-x264.dll
01:52:48.839:     obs-vst.dll
01:52:48.839:     obs-transitions.dll
01:52:48.839:     obs-text.dll
01:52:48.839:     obs-qsv11.dll
01:52:48.839:     obs-outputs.dll
01:52:48.839:     obs-filters.dll
01:52:48.839:     obs-ffmpeg.dll
01:52:48.839:     obs-browser.dll
01:52:48.839:     image-source.dll
01:52:48.839:     frontend-tools.dll
01:52:48.839:     enc-amf.dll
01:52:48.839:     coreaudio-encoder.dll
01:52:48.839: ---------------------------------
01:52:48.840: ==== Startup complete ===============================================
01:52:48.869: All scene data cleared
01:52:48.870: ------------------------------------------------
01:52:49.305: WASAPI: Device 'Speakers (Realtek High Definition Audio)' initialized
01:52:49.437: adding 23 milliseconds of audio buffering, total audio buffering is now 23 milliseconds
01:52:49.464: [WASAPISource::TryInitialize]:[Microphone (Realtek High Definition Audio)] Failed to activate client context: 88890004
01:52:49.464: [WASAPISource::WASAPISource] Device '{0.0.1.00000000}.{fcc652d9-1fa6-4184-bc12-28261cd052aa}' not found.  Waiting for device
01:52:51.650: [WASAPISource::TryInitialize]:[Microphone (H1)] Failed to activate client context: 88890004
01:52:51.650: [WASAPISource::WASAPISource] Device '{0.0.1.00000000}.{614a01bf-5a5d-4c85-8072-206af9ddf73f}' not found.  Waiting for device
01:52:51.670: Switched to scene 'MultiScreen 2'
01:52:51.674: ------------------------------------------------
01:52:51.674: Loaded scenes:
01:52:51.674: - scene 'Window Mixed Reality View':
01:52:51.674: - scene 'WMR TO Steam':
01:52:51.674:     - source: 'Game Capture' (game_capture)
01:52:51.674:     - source: 'H1' (wasapi_input_capture)
01:52:51.674:         - filter: 'Noise Suppression' (noise_suppress_filter)
01:52:51.674:     - source: 'RCE' (game_capture)
01:52:51.674:     - source: 'Display Capture' (monitor_capture)
01:52:51.674:     - source: 'Webcam' (dshow_input)
01:52:51.674: - scene 'Scene 2':
01:52:51.674:     - source: 'Audio Input Capture' (wasapi_input_capture)
01:52:51.674:         - monitoring: monitor and output
01:52:51.674: - scene 'MultiScreen':
01:52:51.674:     - source: '1' (monitor_capture)
01:52:51.674:     - source: '2' (monitor_capture)
01:52:51.674:     - source: '3' (monitor_capture)
01:52:51.674:     - source: 'Webcam' (dshow_input)
01:52:51.674:     - source: 'H1' (wasapi_input_capture)
01:52:51.674:         - filter: 'Noise Suppression' (noise_suppress_filter)
01:52:51.674:     - source: 'BrowserSource' (browser_source)
01:52:51.674:     - source: 'Image' (image_source)
01:52:51.674:     - source: 'Audio Input Capture' (wasapi_input_capture)
01:52:51.674:         - monitoring: monitor and output
01:52:51.674: - scene 'MultiScreen 2':
01:52:51.674:     - source: 'Webcam' (dshow_input)
01:52:51.674:     - source: 'H1' (wasapi_input_capture)
01:52:51.674:         - filter: 'Noise Suppression' (noise_suppress_filter)
01:52:51.674:     - source: 'Image' (image_source)
01:52:51.674:     - source: '3' (monitor_capture)
01:52:51.674:     - source: '1' (monitor_capture)
01:52:51.674:     - source: 'Audio Input Capture' (wasapi_input_capture)
01:52:51.674:         - monitoring: monitor and output
01:52:51.674:     - source: '2' (monitor_capture)
01:52:51.674: ------------------------------------------------
01:52:51.677: Webcam: data.GetDevice failed
01:52:51.677: Webcam: Video configuration failed
01:52:56.219: User switched to scene 'Window Mixed Reality View'
01:52:57.830: User switched to scene 'WMR TO Steam'
01:52:59.364: User switched to scene 'Window Mixed Reality View'
01:53:02.932: User switched to scene 'WMR TO Steam'
01:53:04.212: User switched to scene 'Scene 2'
01:53:07.436: User switched to scene 'WMR TO Steam'
01:53:09.979: User switched to scene 'Window Mixed Reality View'
01:53:24.723: User added source 'Game Capture 2' (game_capture) to scene 'Window Mixed Reality View'
01:53:30.708: [game-capture: 'Game Capture 2'] attempting to hook process: WWAHost.exe
01:53:32.741: [game-capture: 'Game Capture 2'] attempting to hook process: WWAHost.exe
01:53:34.775: [game-capture: 'Game Capture 2'] attempting to hook process: WWAHost.exe
01:53:36.807: [game-capture: 'Game Capture 2'] attempting to hook process: MicrosoftEdge.exe
01:53:36.814: [game-capture: 'Game Capture 2'] using direct hook
01:53:37.441: [game-capture: 'Game Capture 2'] capture stopped
01:53:38.843: [game-capture: 'Game Capture 2'] attempting to hook process: Google Photos.exe
01:53:40.877: [game-capture: 'Game Capture 2'] attempting to hook process: MixedRealityPortal.exe
01:53:40.884: [game-capture: 'Game Capture 2'] using direct hook
01:53:40.941: [game-capture: 'Game Capture 2'] shared texture capture successful
01:53:40.974: [game-capture: 'Game Capture 2'] capture stopped
01:53:42.908: [game-capture: 'Game Capture 2'] attempting to hook process: MixedRealityPortal.exe
01:53:42.941: [game-capture: 'Game Capture 2'] shared texture capture successful
01:54:04.560: ---------------------------------
01:54:04.560: [x264 encoder: 'simple_h264_stream'] preset: veryfast
01:54:04.560: [x264 encoder: 'simple_h264_stream'] settings:
01:54:04.560: 	rate_control: CBR
01:54:04.560: 	bitrate:      2500
01:54:04.560: 	buffer size:  2500
01:54:04.560: 	crf:          0
01:54:04.560: 	fps_num:      30
01:54:04.560: 	fps_den:      1
01:54:04.560: 	width:        1600
01:54:04.560: 	height:       900
01:54:04.560: 	keyint:       60
01:54:04.560: 
01:54:04.576: [Media Foundation AAC: 'simple_aac']: encoder created
01:54:04.576: 	bitrate: 160
01:54:04.576: 	channels: 2
01:54:04.576: 	sample rate: 44100
01:54:04.576: 	bits-per-sample: 16
01:54:04.576: 
01:54:04.604: ==== Recording Start ===============================================
01:54:04.604: [ffmpeg muxer: 'simple_file_output'] Writing file 'C:/Users/JAMS.CENTER/Videos/2018-09-30 01-54-04.flv'...
01:54:11.741: [game-capture: 'Game Capture 2'] shared texture capture successful
01:59:18.356: [ffmpeg muxer: 'simple_file_output'] Output of file 'C:/Users/JAMS.CENTER/Videos/2018-09-30 01-54-04.flv' stopped
01:59:18.356: Output 'simple_file_output': stopping
01:59:18.356: Output 'simple_file_output': Total frames output: 9383
01:59:18.356: Output 'simple_file_output': Total drawn frames: 9413
01:59:18.356: ==== Recording Stop ================================================
02:00:43.905: ==== Shutting down ==================================================
02:00:43.917: Switched to scene '(null)'
02:00:43.928: [game-capture: 'Game Capture 2'] capture stopped
02:00:43.929: WASAPI: Device 'Speakers (Realtek High Definition Audio)' Terminated
02:00:43.943: All scene data cleared
02:00:43.944: ------------------------------------------------
02:00:44.053: Freeing OBS context data
02:00:44.117: [Scripting] Total detached callbacks: 0
02:00:44.127: == Profiler Results =============================
02:00:44.127: run_program_init: 5330.06 ms
02:00:44.127:  ┣OBSApp::AppInit: 36.725 ms
02:00:44.127:  ┃ ┗OBSApp::InitLocale: 15.133 ms
02:00:44.127:  ┗OBSApp::OBSInit: 4585.7 ms
02:00:44.127:    ┣obs_startup: 4.982 ms
02:00:44.127:    ┗OBSBasic::OBSInit: 4521.65 ms
02:00:44.127:      ┣OBSBasic::InitBasicConfig: 1.205 ms
02:00:44.127:      ┣OBSBasic::ResetAudio: 0.646 ms
02:00:44.127:      ┣OBSBasic::ResetVideo: 968.466 ms
02:00:44.127:      ┣OBSBasic::InitOBSCallbacks: 0.004 ms
02:00:44.127:      ┣OBSBasic::InitHotkeys: 0.299 ms
02:00:44.127:      ┣obs_load_all_modules: 597.96 ms
02:00:44.127:      ┃ ┣obs_init_module(coreaudio-encoder.dll): 1.333 ms
02:00:44.127:      ┃ ┣obs_init_module(enc-amf.dll): 42.735 ms
02:00:44.127:      ┃ ┣obs_init_module(frontend-tools.dll): 6.517 ms
02:00:44.127:      ┃ ┣obs_init_module(image-source.dll): 0.007 ms
02:00:44.127:      ┃ ┣obs_init_module(obs-browser.dll): 0.537 ms
02:00:44.127:      ┃ ┣obs_init_module(obs-ffmpeg.dll): 11.912 ms
02:00:44.127:      ┃ ┃ ┗nvenc_check: 11.533 ms
02:00:44.127:      ┃ ┣obs_init_module(obs-filters.dll): 0.023 ms
02:00:44.127:      ┃ ┣obs_init_module(obs-outputs.dll): 0.015 ms
02:00:44.127:      ┃ ┣obs_init_module(obs-qsv11.dll): 48.876 ms
02:00:44.127:      ┃ ┣obs_init_module(obs-text.dll): 0.309 ms
02:00:44.127:      ┃ ┣obs_init_module(obs-transitions.dll): 0.01 ms
02:00:44.127:      ┃ ┣obs_init_module(obs-vst.dll): 0.003 ms
02:00:44.127:      ┃ ┣obs_init_module(obs-x264.dll): 0.012 ms
02:00:44.127:      ┃ ┣obs_init_module(rtmp-services.dll): 9.827 ms
02:00:44.127:      ┃ ┣obs_init_module(text-freetype2.dll): 0.115 ms
02:00:44.127:      ┃ ┣obs_init_module(vlc-video.dll): 56.079 ms
02:00:44.127:      ┃ ┣obs_init_module(win-capture.dll): 0.361 ms
02:00:44.127:      ┃ ┣obs_init_module(win-decklink.dll): 5.896 ms
02:00:44.127:      ┃ ┣obs_init_module(win-dshow.dll): 11.408 ms
02:00:44.127:      ┃ ┣obs_init_module(win-mf.dll): 127.384 ms
02:00:44.127:      ┃ ┣obs_init_module(win-wasapi.dll): 0.015 ms
02:00:44.127:      ┃ ┗reset_win32_symbol_paths: 0.102 ms
02:00:44.127:      ┣OBSBasic::ResetOutputs: 1.71 ms
02:00:44.127:      ┣OBSBasic::CreateHotkeys: 0.343 ms
02:00:44.127:      ┣OBSBasic::InitService: 16.035 ms
02:00:44.127:      ┣OBSBasic::InitPrimitives: 0.603 ms
02:00:44.127:      ┗OBSBasic::Load: 2816.57 ms
02:00:44.127: obs_hotkey_thread(25 ms): min=0.003 ms, median=0.012 ms, max=2.719 ms, 99th percentile=0.298 ms, 100% below 25 ms
02:00:44.127: audio_thread(Audio): min=0 ms, median=0.193 ms, max=14.944 ms, 99th percentile=0.657 ms
02:00:44.127:  ┗receive_audio: min=0.005 ms, median=0.167 ms, max=3.008 ms, 99th percentile=0.52 ms, 0.646772 calls per parent call
02:00:44.127:    ┣buffer_audio: min=0 ms, median=0.001 ms, max=0.155 ms, 99th percentile=0.007 ms
02:00:44.127:    ┗do_encode: min=0.06 ms, median=0.161 ms, max=3.001 ms, 99th percentile=0.503 ms
02:00:44.127:      ┗encode(simple_aac): min=0.059 ms, median=0.134 ms, max=1.527 ms, 99th percentile=0.404 ms
02:00:44.127: obs_graphics_thread(33.3333 ms): min=0.405 ms, median=1.116 ms, max=2349.65 ms, 99th percentile=2.798 ms, 99.9859% below 33.333 ms
02:00:44.127:  ┣tick_sources: min=0.002 ms, median=0.033 ms, max=2348.36 ms, 99th percentile=0.399 ms
02:00:44.127:  ┣output_frame: min=0.367 ms, median=0.746 ms, max=18.637 ms, 99th percentile=1.82 ms
02:00:44.127:  ┃ ┣gs_context(video->graphics): min=0.112 ms, median=0.236 ms, max=17.973 ms, 99th percentile=0.597 ms
02:00:44.127:  ┃ ┃ ┣render_video: min=0.034 ms, median=0.07 ms, max=1.485 ms, 99th percentile=0.233 ms
02:00:44.127:  ┃ ┃ ┃ ┣render_main_texture: min=0.005 ms, median=0.03 ms, max=0.813 ms, 99th percentile=0.126 ms
02:00:44.127:  ┃ ┃ ┃ ┣render_output_texture: min=0.005 ms, median=0.01 ms, max=0.642 ms, 99th percentile=0.065 ms
02:00:44.127:  ┃ ┃ ┃ ┣render_convert_texture: min=0.001 ms, median=0.011 ms, max=0.653 ms, 99th percentile=0.057 ms
02:00:44.128:  ┃ ┃ ┃ ┗stage_output_texture: min=0 ms, median=0.004 ms, max=0.587 ms, 99th percentile=0.062 ms
02:00:44.128:  ┃ ┃ ┣download_frame: min=0 ms, median=0.003 ms, max=0.953 ms, 99th percentile=0.233 ms
02:00:44.128:  ┃ ┃ ┗gs_flush: min=0.028 ms, median=0.132 ms, max=1.418 ms, 99th percentile=0.4 ms
02:00:44.128:  ┃ ┗output_video_data: min=0.232 ms, median=0.498 ms, max=6.489 ms, 99th percentile=1.367 ms
02:00:44.128:  ┗render_displays: min=0.001 ms, median=0.285 ms, max=3.229 ms, 99th percentile=1.163 ms
02:00:44.128: video_thread(video): min=0 ms, median=1.626 ms, max=14.708 ms, 99th percentile=3.433 ms
02:00:44.128:  ┗receive_video: min=0 ms, median=1.886 ms, max=14.703 ms, 99th percentile=3.642 ms, 0.662841 calls per parent call
02:00:44.128:    ┗do_encode: min=1.12 ms, median=1.885 ms, max=14.701 ms, 99th percentile=3.641 ms
02:00:44.128:      ┗encode(simple_h264_stream): min=1.098 ms, median=1.841 ms, max=5.934 ms, 99th percentile=3.463 ms
02:00:44.128: =================================================
02:00:44.128: == Profiler Time Between Calls ==================
02:00:44.128: obs_hotkey_thread(25 ms): min=24.455 ms, median=25.771 ms, max=28.841 ms, 28.7469% within ±2% of 25 ms (0.00538735% lower, 71.2477% higher)
02:00:44.128: obs_graphics_thread(33.3333 ms): min=18.963 ms, median=33.333 ms, max=2349.67 ms, 99.8451% within ±2% of 33.333 ms (0.077443% lower, 0.077443% higher)
02:00:44.128: =================================================
02:00:44.221: Number of memory leaks: 1
