19:57:52.955: CPU Name: Intel(R) Core(TM) i7-7820HK CPU @ 2.90GHz
19:57:52.955: CPU Speed: 2904MHz
19:57:52.955: Physical Cores: 4, Logical Cores: 8
19:57:52.955: Physical Memory: 16333MB Total, 9295MB Free
19:57:52.955: Windows Version: 10.0 Build 17134 (revision: 285; 64-bit)
19:57:52.955: Running as administrator: false
19:57:52.955: Aero is Enabled (Aero is always on for windows 8 and above)
19:57:52.955: Windows 10 Gaming Features:
19:57:52.955: 	Game Bar: Off
19:57:52.955: 	Game DVR: Off
19:57:52.955: 	Game DVR Background Recording: Off
19:57:52.955: 	Game Mode: On
19:57:52.957: Sec. Software Status:
19:57:52.959: 	Windows Defender Antivirus: enabled (AV)
19:57:52.959: 	Windows Firewall: disabled (FW)
19:57:52.959: 	Windows Defender Antivirus: enabled (ASW)
19:57:52.960: Portable mode: false
19:57:52.976: OBS 21.0.1 (64bit, windows)
19:57:52.976: ---------------------------------
19:57:52.977: ---------------------------------
19:57:52.977: audio settings reset:
19:57:52.977: 	samples per sec: 44100
19:57:52.977: 	speakers:        2
19:57:52.979: ---------------------------------
19:57:52.979: Initializing D3D11...
19:57:52.979: Available Video Adapters: 
19:57:52.981: 	Adapter 1: NVIDIA GeForce GTX 1070
19:57:52.981: 	  Dedicated VRAM: 4178575360
19:57:52.981: 	  Shared VRAM:    4268564480
19:57:52.981: 	  output 1: pos={0, 0}, size={1920, 1080}, attached=true
19:57:52.981: 	  output 2: pos={942, -1086}, size={1920, 1080}, attached=true
19:57:52.981: 	  output 3: pos={-498, -900}, size={1440, 900}, attached=true
19:57:52.983: Loading up D3D11 on adapter NVIDIA GeForce GTX 1070 (0)
19:57:53.038: D3D11 loaded successfully, feature level used: 45056
19:57:53.800: ---------------------------------
19:57:53.800: video settings reset:
19:57:53.800: 	base resolution:   1600x900
19:57:53.800: 	output resolution: 1600x900
19:57:53.800: 	downscale filter:  Bicubic
19:57:53.800: 	fps:               30/1
19:57:53.800: 	format:            NV12
19:57:53.804: Audio monitoring device:
19:57:53.804: 	name: Default
19:57:53.804: 	id: default
19:57:53.806: ---------------------------------
19:57:53.814: Required module function 'obs_module_load' in module '../../obs-plugins/64bit/chrome_elf.dll' not found, loading of module failed
19:57:53.821: [CoreAudio encoder]: CoreAudio AAC encoder not installed on the system or couldn't be loaded
19:57:53.874: [AMF] <obs_module_load> AMF not supported (no AMD graphics)
19:57:53.874: Failed to initialize module 'enc-amf.dll'
19:57:53.940: Required module function 'obs_module_load' in module '../../obs-plugins/64bit/libcef.dll' not found, loading of module failed
19:57:53.941: Required module function 'obs_module_load' in module '../../obs-plugins/64bit/libEGL.dll' not found, loading of module failed
19:57:53.944: Required module function 'obs_module_load' in module '../../obs-plugins/64bit/libGLESv2.dll' not found, loading of module failed
19:57:53.948: Failed to load 'en-US' text for module: 'obs-browser.dll'
19:57:53.948: [browser_source: 'Version: 1.29.0']
19:57:53.970: NVENC supported
19:57:54.150: VLC found, VLC video source enabled
19:57:54.167: No blackmagic support
19:57:54.277: ---------------------------------
19:57:54.277:   Loaded Modules:
19:57:54.277:     win-wasapi.dll
19:57:54.277:     win-mf.dll
19:57:54.277:     win-dshow.dll
19:57:54.277:     win-decklink.dll
19:57:54.277:     win-capture.dll
19:57:54.277:     vlc-video.dll
19:57:54.277:     text-freetype2.dll
19:57:54.277:     rtmp-services.dll
19:57:54.277:     obs-x264.dll
19:57:54.277:     obs-vst.dll
19:57:54.277:     obs-transitions.dll
19:57:54.277:     obs-text.dll
19:57:54.277:     obs-qsv11.dll
19:57:54.277:     obs-outputs.dll
19:57:54.277:     obs-filters.dll
19:57:54.277:     obs-ffmpeg.dll
19:57:54.277:     obs-browser.dll
19:57:54.277:     image-source.dll
19:57:54.277:     frontend-tools.dll
19:57:54.277:     enc-amf.dll
19:57:54.277:     coreaudio-encoder.dll
19:57:54.277: ---------------------------------
19:57:54.278: ==== Startup complete ===============================================
19:57:54.300: All scene data cleared
19:57:54.300: ------------------------------------------------
19:57:54.600: WASAPI: Device 'Speakers (Realtek High Definition Audio)' initialized
19:57:54.629: adding 23 milliseconds of audio buffering, total audio buffering is now 23 milliseconds
19:57:54.776: WASAPI: Device 'Microphone (Realtek High Definition Audio)' initialized
19:57:55.590: adding 23 milliseconds of audio buffering, total audio buffering is now 46 milliseconds
19:57:58.991: [WASAPISource::TryInitialize]:[Microphone (H1)] Failed to activate client context: 88890004
19:57:58.991: [WASAPISource::WASAPISource] Device '{0.0.1.00000000}.{614a01bf-5a5d-4c85-8072-206af9ddf73f}' not found.  Waiting for device
19:57:59.006: Switched to scene 'MultiScreen 2'
19:57:59.010: ------------------------------------------------
19:57:59.010: Loaded scenes:
19:57:59.010: - scene 'Window Mixed Reality View':
19:57:59.010: - scene 'WMR TO Steam':
19:57:59.010:     - source: 'Game Capture' (game_capture)
19:57:59.010:     - source: 'H1' (wasapi_input_capture)
19:57:59.010:         - filter: 'Noise Suppression' (noise_suppress_filter)
19:57:59.010:     - source: 'RCE' (game_capture)
19:57:59.010:     - source: 'Display Capture' (monitor_capture)
19:57:59.010:     - source: 'Webcam' (dshow_input)
19:57:59.010: - scene 'Scene 2':
19:57:59.010:     - source: 'Audio Input Capture' (wasapi_input_capture)
19:57:59.010:         - monitoring: monitor and output
19:57:59.010: - scene 'MultiScreen':
19:57:59.010:     - source: '1' (monitor_capture)
19:57:59.010:     - source: '2' (monitor_capture)
19:57:59.010:     - source: '3' (monitor_capture)
19:57:59.010:     - source: 'Webcam' (dshow_input)
19:57:59.010:     - source: 'H1' (wasapi_input_capture)
19:57:59.010:         - filter: 'Noise Suppression' (noise_suppress_filter)
19:57:59.010:     - source: 'BrowserSource' (browser_source)
19:57:59.010:     - source: 'Image' (image_source)
19:57:59.010:     - source: 'Audio Input Capture' (wasapi_input_capture)
19:57:59.010:         - monitoring: monitor and output
19:57:59.010: - scene 'MultiScreen 2':
19:57:59.010:     - source: 'Webcam' (dshow_input)
19:57:59.010:     - source: 'H1' (wasapi_input_capture)
19:57:59.010:         - filter: 'Noise Suppression' (noise_suppress_filter)
19:57:59.010:     - source: 'Image' (image_source)
19:57:59.010:     - source: '3' (monitor_capture)
19:57:59.010:     - source: '1' (monitor_capture)
19:57:59.010:     - source: 'Audio Input Capture' (wasapi_input_capture)
19:57:59.010:         - monitoring: monitor and output
19:57:59.010:     - source: '2' (monitor_capture)
19:57:59.010: ------------------------------------------------
19:57:59.013: Webcam: data.GetDevice failed
19:57:59.013: Webcam: Video configuration failed
20:07:56.544: adding 23 milliseconds of audio buffering, total audio buffering is now 69 milliseconds
20:22:11.404: Device 'Speakers (Realtek High Definition Audio)' invalidated.  Retrying
20:22:14.474: WASAPI: Device 'Speakers (Realtek High Definition Audio)' initialized
20:38:13.816: Device 'Speakers (Realtek High Definition Audio)' invalidated.  Retrying
20:38:16.817: [WASAPISource::TryInitialize]:[Speakers (Realtek High Definition Audio)] Failed to activate client context: 88890004
